dump.vcd
$date
	Fri Jul 11 03:06:59 2025
$end

$version
	Synopsys VCS version U-2023.03-SP2_Full64
$end

$timescale
	1ns
$end

$comment Csum: 1 b07f3bcfefbdc323 $end


$scope module $unit $end
$upscope $end


$scope module axi4_globals_pkg $end
$upscope $end


$scope module axi4_tb_top $end
$var reg 1 ! ACLK $end
$var reg 1 " ARESETn $end

$scope begin unnamed$$_vcs_1 $end
$upscope $end


$scope begin unnamed$$_vcs_0 $end
$upscope $end


$scope begin unnamed$$_vcs_2 $end
$upscope $end


$scope module axi4_vintf_h $end
$var reg 1 # ACLK $end
$var reg 4 $ AWID [3:0] $end
$var reg 32 % AWADDR [31:0] $end
$var reg 8 & AWLEN [7:0] $end
$var reg 3 ' AWSIZE [2:0] $end
$var reg 2 ( AWBURST [1:0] $end
$var reg 1 ) AWLOCK [0:0] $end
$var reg 4 * AWCACHEE [3:0] $end
$var reg 3 + AWPROT [2:0] $end
$var reg 4 , AWQOS [3:0] $end
$var reg 4 - AWREGION [3:0] $end
$var reg 1 . AWUSER [0:0] $end
$var reg 1 / AWVALID $end
$var reg 1 0 AWREADY $end
$var reg 32 1 WDATA [31:0] $end
$var reg 4 2 WSTRB [3:0] $end
$var reg 1 3 WLAST $end
$var reg 1 4 WUSER [0:0] $end
$var reg 1 5 WVALID $end
$var reg 1 6 WREADY $end
$var reg 4 7 BID [3:0] $end
$var reg 2 8 BRESP [1:0] $end
$var reg 1 9 BUSER [0:0] $end
$var reg 1 : BVALID $end
$var reg 1 ; BREADY $end
$var reg 4 < ARID [3:0] $end
$var reg 32 = ARADDR [31:0] $end
$var reg 8 > ARLEN [7:0] $end
$var reg 3 ? ARSIZE [2:0] $end
$var reg 2 @ ARBURST [1:0] $end
$var reg 1 A ARLOCK [0:0] $end
$var reg 4 B ARCACHEE [3:0] $end
$var reg 3 C ARPROT [2:0] $end
$var reg 4 D ARQOS [3:0] $end
$var reg 4 E ARREGION [3:0] $end
$var reg 1 F ARUSER [0:0] $end
$var reg 1 G ARVALID $end
$var reg 1 H ARREADY $end
$var reg 4 I RID [3:0] $end
$var reg 32 J RDATA [31:0] $end
$var reg 2 K RRESP [1:0] $end
$var reg 1 L RLAST $end
$var reg 1 M RUSER [0:0] $end
$var reg 1 N RVALID $end
$var reg 1 O RREADY $end
$var reg 1 P ARESETn $end

$scope fork unnamed$$_vcs_0 $end

$scope begin unnamed$$_vcs_1 $end
$upscope $end


$scope begin unnamed$$_vcs_2 $end
$upscope $end


$scope begin unnamed$$_vcs_3 $end
$upscope $end

$upscope $end

$upscope $end

$upscope $end


$scope module uvm_pkg $end
$var time 64 Q setting_offset $end
$var reg 32 R uvm_global_random_seed [31:0] $end
$var reg 32 S UVM_UNBOUNDED_CONNECTIONS [31:0] $end
$var reg 1 T uvm_start_uvm_declarations $end
$var reg 32 U setting_verbosity [31:0] $end
$var reg 1 V is_verdi_set_verbosity_called $end
$upscope $end

$enddefinitions $end

#0
$dumpvars
0V
1T
bxxxxxxxxxxxxxxxxxxxxxxxxxxxxxxxxxxxxxxxxxxxxxxxxxxxxxxxxxxxxxxxx Q
b11111111111111111111111111111111 S
b00000000000000000000000000000000 U
b01000010000001111100110001000111 R
0!
1"
bxx K
bxxxxxxxxxxxxxxxxxxxxxxxxxxxxxxxx J
bxxxx I
bxxxx E
bxxxx D
bxxx C
bxxxx B
bxx @
bxxx ?
bxxxxxxxx >
bxxxxxxxxxxxxxxxxxxxxxxxxxxxxxxxx =
bxxxx <
bxx 8
bxxxx 7
bxxxx 2
bxxxxxxxxxxxxxxxxxxxxxxxxxxxxxxxx 1
bxxxx -
bxxxx ,
bxxx +
bxxxx *
bxx (
bxxx '
bxxxxxxxx &
bxxxxxxxxxxxxxxxxxxxxxxxxxxxxxxxx %
bxxxx $
0#
1P
xA
1H
xF
xG
x)
10
x.
x/
x;
x9
x:
xL
xO
xM
1N
x3
16
x4
x5
$end
#5
1!
1#
b1110 <
b10111010011001010110110101010000 =
b00000111 >
b011 ?
b10 @
0A
b0000 B
b000 C
b1111 D
b0111 E
0F
1G
b0000 $
b00010110000100100011001101000000 %
b00000111 &
b100 '
b01 (
0)
b1010 *
b011 +
b0110 ,
b1111 -
1.
1/
#10
0!
0#
#15
1!
1#
0G
0/
#20
0!
0#
#25
1!
1#
0O
b01100011100100000000000011001110 1
b1111 2
03
14
05
#30
0!
0#
#35
1!
1#
b11101110100111010001000001100011 1
b0110 2
#40
0!
0#
#45
1!
1#
b10011010111001101001010010101011 1
b0111 2
#50
0!
0#
#55
1!
1#
b01000000111001001011010100111010 1
b0101 2
#60
0!
0#
#65
1!
1#
b10110111010001110110011100101111 1
b1001 2
#70
0!
0#
#75
1!
1#
1O
b10000111010101100010101111001011 1
b0011 2
#80
0!
0#
#85
1!
1#
b00100010110110110011111010111001 1
b0111 2
#90
0!
0#
#95
1!
1#
b11100000100100111011010100110110 1
b1001 2
13
#100
1:
0!
0#
#105
1!
1#
03
#110
0!
0#
#115
1!
1#
#120
0!
0#
#125
1!
1#
#130
0!
0#
#135
1!
1#
#140
0!
0#
#145
1!
1#
#150
0!
0#
#155
1!
1#
#160
0!
0#
#165
1!
1#
#170
0!
0#
#175
1!
1#
#180
0!
0#
#185
1!
1#
#190
0!
0#
#195
1!
1#
#200
1L
0!
0#
#205
1!
1#
#210
0!
0#
#215
1!
1#
0O
